
27/09/2015 15:55:48: Iniciando...
27/09/2015 15:55:48: Creamos el archivo '/home/xeno/www/staddium-api/controllers/../data/update/update_27_09_2015_02_00.lock'
27/09/2015 15:55:48: Creando copia de seguridad de Internet
27/09/2015 15:55:49: Descargando internet...
27/09/2015 15:55:51: Internet descargado con exito
27/09/2015 15:55:51: Disquet sin formatear...
27/09/2015 15:55:51: Formateando disquet 3,5"...
27/09/2015 15:55:52: Guardando internet en disquet 3,5"...
27/09/2015 15:55:56: Guardando con exito
27/09/2015 15:55:56: Tareas finalizadas